xof 0303txt 0032

Frame Root {
  FrameTransformMatrix {
     1.000000, 0.000000, 0.000000, 0.000000,
     0.000000,-0.000000, 1.000000, 0.000000,
     0.000000, 1.000000, 0.000000, 0.000000,
     0.000000, 0.000000, 0.000000, 1.000000;;
  }
  Frame Icosphere {
    FrameTransformMatrix {
       1.000000, 0.000000, 0.000000, 0.000000,
       0.000000, 1.000000, 0.000000, 0.000000,
       0.000000, 0.000000, 1.000000, 0.000000,
       0.000000, 0.000000, 0.000000, 1.000000;;
    }
    Mesh { // Icosphere mesh
      42;
       0.000000; 0.000000;-1.000000;,
       0.723607;-0.525725;-0.447220;,
      -0.276388;-0.850649;-0.447220;,
      -0.894426; 0.000000;-0.447216;,
      -0.276388; 0.850649;-0.447220;,
       0.723607; 0.525725;-0.447220;,
       0.276388;-0.850649; 0.447220;,
      -0.723607;-0.525725; 0.447220;,
      -0.723607; 0.525725; 0.447220;,
       0.276388; 0.850649; 0.447220;,
       0.894426; 0.000000; 0.447216;,
       0.000000; 0.000000; 1.000000;,
      -0.162456;-0.499995;-0.850654;,
       0.425323;-0.309011;-0.850654;,
       0.262869;-0.809012;-0.525738;,
       0.850648; 0.000000;-0.525736;,
       0.425323; 0.309011;-0.850654;,
      -0.525730; 0.000000;-0.850652;,
      -0.688189;-0.499997;-0.525736;,
      -0.162456; 0.499995;-0.850654;,
      -0.688189; 0.499997;-0.525736;,
       0.262869; 0.809012;-0.525738;,
       0.951058;-0.309013; 0.000000;,
       0.951058; 0.309013; 0.000000;,
       0.000000;-1.000000; 0.000000;,
       0.587786;-0.809017; 0.000000;,
      -0.951058;-0.309013; 0.000000;,
      -0.587786;-0.809017; 0.000000;,
      -0.587786; 0.809017; 0.000000;,
      -0.951058; 0.309013; 0.000000;,
       0.587786; 0.809017; 0.000000;,
       0.000000; 1.000000; 0.000000;,
       0.688189;-0.499997; 0.525736;,
      -0.262869;-0.809012; 0.525738;,
      -0.850648; 0.000000; 0.525736;,
      -0.262869; 0.809012; 0.525738;,
       0.688189; 0.499997; 0.525736;,
       0.162456;-0.499995; 0.850654;,
       0.525730; 0.000000; 0.850652;,
      -0.425323;-0.309011; 0.850654;,
      -0.425323; 0.309011; 0.850654;,
       0.162456; 0.499995; 0.850654;;
      80;
      3;12,13,0;,
      3;15,13,1;,
      3;17,12,0;,
      3;19,17,0;,
      3;16,19,0;,
      3;22,15,1;,
      3;24,14,2;,
      3;26,18,3;,
      3;28,20,4;,
      3;30,21,5;,
      3;25,22,1;,
      3;27,24,2;,
      3;29,26,3;,
      3;31,28,4;,
      3;23,30,5;,
      3;37,32,6;,
      3;39,33,7;,
      3;40,34,8;,
      3;41,35,9;,
      3;38,36,10;,
      3;2,14,12;,
      3;14,13,12;,
      3;14,1,13;,
      3;5,16,15;,
      3;16,13,15;,
      3;16,0,13;,
      3;3,18,17;,
      3;18,12,17;,
      3;18,2,12;,
      3;4,20,19;,
      3;20,17,19;,
      3;20,3,17;,
      3;5,21,16;,
      3;21,19,16;,
      3;21,4,19;,
      3;10,23,22;,
      3;23,15,22;,
      3;23,5,15;,
      3;6,25,24;,
      3;25,14,24;,
      3;25,1,14;,
      3;7,27,26;,
      3;27,18,26;,
      3;27,2,18;,
      3;8,29,28;,
      3;29,20,28;,
      3;29,3,20;,
      3;9,31,30;,
      3;31,21,30;,
      3;31,4,21;,
      3;6,32,25;,
      3;32,22,25;,
      3;32,10,22;,
      3;7,33,27;,
      3;33,24,27;,
      3;33,6,24;,
      3;8,34,29;,
      3;34,26,29;,
      3;34,7,26;,
      3;9,35,31;,
      3;35,28,31;,
      3;35,8,28;,
      3;10,36,23;,
      3;36,30,23;,
      3;36,9,30;,
      3;11,38,37;,
      3;38,32,37;,
      3;38,10,32;,
      3;11,37,39;,
      3;37,33,39;,
      3;37,6,33;,
      3;11,39,40;,
      3;39,34,40;,
      3;39,7,34;,
      3;11,40,41;,
      3;40,35,41;,
      3;40,8,35;,
      3;11,41,38;,
      3;41,36,38;,
      3;41,9,36;;
      MeshNormals { // Icosphere normals
        80;
         0.102381;-0.315090;-0.943523;,
         0.700224;-0.268032;-0.661699;,
        -0.268034;-0.194736;-0.943523;,
        -0.268034; 0.194737;-0.943523;,
         0.102381; 0.315090;-0.943523;,
         0.904989;-0.268032;-0.330385;,
         0.024747;-0.943521;-0.330386;,
        -0.889697;-0.315095;-0.330385;,
        -0.574602; 0.748784;-0.330388;,
         0.534576; 0.777865;-0.330387;,
         0.802609;-0.583126;-0.125627;,
        -0.306569;-0.943522;-0.125629;,
        -0.992077;-0.000000;-0.125628;,
        -0.306569; 0.943522;-0.125629;,
         0.802609; 0.583126;-0.125627;,
         0.408946;-0.628425; 0.661698;,
        -0.471300;-0.583122; 0.661699;,
        -0.700224; 0.268032; 0.661699;,
         0.038530; 0.748779; 0.661699;,
         0.724042; 0.194736; 0.661695;,
        -0.038530;-0.748779;-0.661699;,
         0.187594;-0.577345;-0.794658;,
         0.471300;-0.583122;-0.661699;,
         0.700224; 0.268032;-0.661699;,
         0.607060; 0.000000;-0.794656;,
         0.331305; 0.000000;-0.943524;,
        -0.724042;-0.194736;-0.661695;,
        -0.491119;-0.356821;-0.794657;,
        -0.408946;-0.628425;-0.661698;,
        -0.408946; 0.628425;-0.661698;,
        -0.491119; 0.356821;-0.794657;,
        -0.724042; 0.194736;-0.661695;,
         0.471300; 0.583122;-0.661699;,
         0.187594; 0.577345;-0.794658;,
        -0.038530; 0.748779;-0.661699;,
         0.992077; 0.000000; 0.125628;,
         0.982246; 0.000000;-0.187599;,
         0.904989; 0.268031;-0.330385;,
         0.306569;-0.943522; 0.125629;,
         0.303531;-0.934171;-0.187597;,
         0.534576;-0.777865;-0.330387;,
        -0.802609;-0.583126; 0.125627;,
        -0.794656;-0.577348;-0.187595;,
        -0.574602;-0.748784;-0.330388;,
        -0.802609; 0.583126; 0.125627;,
        -0.794656; 0.577348;-0.187595;,
        -0.889697; 0.315095;-0.330385;,
         0.306569; 0.943522; 0.125629;,
         0.303531; 0.934171;-0.187597;,
         0.024747; 0.943521;-0.330386;,
         0.574602;-0.748784; 0.330388;,
         0.794656;-0.577348; 0.187595;,
         0.889697;-0.315095; 0.330385;,
        -0.534576;-0.777865; 0.330387;,
        -0.303531;-0.934171; 0.187597;,
        -0.024747;-0.943521; 0.330386;,
        -0.904989; 0.268032; 0.330385;,
        -0.982246; 0.000000; 0.187599;,
        -0.904989;-0.268031; 0.330385;,
        -0.024747; 0.943521; 0.330386;,
        -0.303531; 0.934171; 0.187597;,
        -0.534576; 0.777865; 0.330387;,
         0.889697; 0.315095; 0.330385;,
         0.794656; 0.577348; 0.187595;,
         0.574602; 0.748784; 0.330388;,
         0.268034;-0.194737; 0.943523;,
         0.491119;-0.356821; 0.794657;,
         0.724042;-0.194736; 0.661695;,
        -0.102381;-0.315090; 0.943523;,
        -0.187594;-0.577345; 0.794658;,
         0.038530;-0.748779; 0.661699;,
        -0.331305; 0.000000; 0.943524;,
        -0.607060; 0.000000; 0.794656;,
        -0.700224;-0.268032; 0.661699;,
        -0.102381; 0.315090; 0.943523;,
        -0.187594; 0.577345; 0.794658;,
        -0.471300; 0.583122; 0.661699;,
         0.268034; 0.194737; 0.943523;,
         0.491119; 0.356821; 0.794657;,
         0.408946; 0.628425; 0.661699;;
        80;
        3;0,0,0;,
        3;1,1,1;,
        3;2,2,2;,
        3;3,3,3;,
        3;4,4,4;,
        3;5,5,5;,
        3;6,6,6;,
        3;7,7,7;,
        3;8,8,8;,
        3;9,9,9;,
        3;10,10,10;,
        3;11,11,11;,
        3;12,12,12;,
        3;13,13,13;,
        3;14,14,14;,
        3;15,15,15;,
        3;16,16,16;,
        3;17,17,17;,
        3;18,18,18;,
        3;19,19,19;,
        3;20,20,20;,
        3;21,21,21;,
        3;22,22,22;,
        3;23,23,23;,
        3;24,24,24;,
        3;25,25,25;,
        3;26,26,26;,
        3;27,27,27;,
        3;28,28,28;,
        3;29,29,29;,
        3;30,30,30;,
        3;31,31,31;,
        3;32,32,32;,
        3;33,33,33;,
        3;34,34,34;,
        3;35,35,35;,
        3;36,36,36;,
        3;37,37,37;,
        3;38,38,38;,
        3;39,39,39;,
        3;40,40,40;,
        3;41,41,41;,
        3;42,42,42;,
        3;43,43,43;,
        3;44,44,44;,
        3;45,45,45;,
        3;46,46,46;,
        3;47,47,47;,
        3;48,48,48;,
        3;49,49,49;,
        3;50,50,50;,
        3;51,51,51;,
        3;52,52,52;,
        3;53,53,53;,
        3;54,54,54;,
        3;55,55,55;,
        3;56,56,56;,
        3;57,57,57;,
        3;58,58,58;,
        3;59,59,59;,
        3;60,60,60;,
        3;61,61,61;,
        3;62,62,62;,
        3;63,63,63;,
        3;64,64,64;,
        3;65,65,65;,
        3;66,66,66;,
        3;67,67,67;,
        3;68,68,68;,
        3;69,69,69;,
        3;70,70,70;,
        3;71,71,71;,
        3;72,72,72;,
        3;73,73,73;,
        3;74,74,74;,
        3;75,75,75;,
        3;76,76,76;,
        3;77,77,77;,
        3;78,78,78;,
        3;79,79,79;;
      } // End of Icosphere normals
    } // End of Icosphere mesh
  } // End of Icosphere
} // End of Root
